%YAML 1.1
%TAG !u! tag:unity3d.com,2011:
--- !u!1045 &1
EditorBuildSettings:
  m_ObjectHideFlags: 0
  serializedVersion: 2
  m_Scenes:
  - enabled: 1
    path: Assets/Scenes/MenuScene.unity
    guid: bbc01bbf1a302474a8993711d943c505
  - enabled: 1
    path: Assets/Scenes/LvlOne.unity
    guid: 35f8c61a74d734a4d8f26d34545772c5
  - enabled: 1
    path: Assets/Scenes/LvlTwo.unity
    guid: 4cf02d32737c81944a57f05c6bdddd80
  - enabled: 1
    path: Assets/Scenes/LvlThree.unity
    guid: 7775933362f1de8448b0f9e5e699ddf1
  m_configObjects: {}
